…
#Summarizing Option 2: Compute the number of observations for each category of the categorical variable neighborhood.

#compute the total number of trees for each neighborhood
total_trees_neighbourhood <- vancouver_trees %>%
                                  group_by(neighbourhood_name) %>%
                                  summarize(n = n())

# Combine into one new tibble
data_QR2 <- left_join(species_richness_neighbourhood, total_trees_neighbourhood, by="neighbourhood_name")

data_QR2
```

    ## # A tibble: 22 × 3
    ##    neighbourhood_name       species_richness     n
    ##    <chr>                               <int> <int>
    ##  1 ARBUTUS-RIDGE                         121  5169
    ##  2 DOWNTOWN                               79  5159
    ##  3 DUNBAR-SOUTHLANDS                     161  9415
    ##  4 FAIRVIEW                              119  4002
    ##  5 GRANDVIEW-WOODLAND                    146  6703
    ##  6 HASTINGS-SUNRISE                      176 10547
    ##  7 KENSINGTON-CEDAR COTTAGE              159 11042
    ##  8 KERRISDALE                            138  6936
    ##  9 KILLARNEY                             122  6148
    ## 10 KITSILANO                             171  8115
    ## # ℹ 12 more rows
…
``` r
# Option 1. Compute the range, mean, median, first and third quartiles of the numerical variable diameter across different neighbourhoods.
data_RQ4 <- vancouver_trees %>% 
  group_by(neighbourhood_name) %>%
  summarise(
    range = max(diameter)-min(diameter),
    mean_dia = mean(diameter, na.rm = TRUE),
    median_dia = median(diameter),
    Q1_dia = quantile(diameter, 0.25),
    Q3_dia = quantile(diameter, 0.75))

data_RQ4
```

    ## # A tibble: 22 × 6
    ##    neighbourhood_name       range mean_dia median_dia Q1_dia Q3_dia
    ##    <chr>                    <dbl>    <dbl>      <dbl>  <dbl>  <dbl>
    ##  1 ARBUTUS-RIDGE             62      11.9        10     4.25   17  
    ##  2 DOWNTOWN                 150       7.45        6     4      10  
    ##  3 DUNBAR-SOUTHLANDS        305      13.9        12     4      22  
    ##  4 FAIRVIEW                  97.8    10.6         9     4      14  
    ##  5 GRANDVIEW-WOODLAND        63      11.4         8.5   4      16  
    ##  6 HASTINGS-SUNRISE         435      11.0         8.5   4      15  
    ##  7 KENSINGTON-CEDAR COTTAGE  99      11.7         9.5   4      16.5
    ##  8 KERRISDALE               156      12.7        10     4      19.5
    ##  9 KILLARNEY                 50      10.1         8     3      14  
    ## 10 KITSILANO                317      14.4        12     5      22  
    ## # ℹ 12 more rows
…
#compute the total number of trees for each neighborhood
total_trees_neighbourhood <- vancouver_trees %>%
                                  group_by(neighbourhood_name) %>%
                                  summarize(n = n())

# Combine into one new tibble
data_QR2 <- left_join(species_richness_neighbourhood, total_trees_neighbourhood, by="neighbourhood_name")

data_QR2
```

    ## # A tibble: 22 × 3
    ##    neighbourhood_name       species_richness     n
    ##    <chr>                               <int> <int>
    ##  1 ARBUTUS-RIDGE                         121  5169
    ##  2 DOWNTOWN                               79  5159
    ##  3 DUNBAR-SOUTHLANDS                     161  9415
    ##  4 FAIRVIEW                              119  4002
    ##  5 GRANDVIEW-WOODLAND                    146  6703
    ##  6 HASTINGS-SUNRISE                      176 10547
    ##  7 KENSINGTON-CEDAR COTTAGE              159 11042
    ##  8 KERRISDALE                            138  6936
    ##  9 KILLARNEY                             122  6148
    ## 10 KITSILANO                             171  8115
    ## # ℹ 12 more rows
…
